3 Results | Tracking memory decline
…
data_avg2 <- data %>%
  group_by(lessonId, userId, sessionId) %>%
  summarise(correct = mean(correct), responseTime=mean(reactionTime)) %>%
  ungroup()

data_avg <- data_avg1 %>% inner_join(data_avg2)

data_avg %>% 
  group_by(userId, lessonTitle, lessonId) %>% 
  summarize(numSess=length(unique(sessionId))) 

## # A tibble: 71 x 4
## # Groups:   userId, lessonTitle [71]
##    userId lessonTitle         lessonId numSess
##     <dbl> <chr>                  <dbl>   <int>
##  1  69410 01 Practice             4035       1
##  2  69410 Birds                   3322       1
##  3  69410 European Capitals 1     3257       1
##  4  69410 Flowers                 3255       1
##  5  69410 Newspapers              3321       1
##  6  69410 Pasta                   3266       1
##  7  69410 Swahili 1               3254       1
##  8  69411 Birds                   3322       1
##  9  69411 European Capitals 1     3257       2
## 10  69411 Flowers                 3255       1
## # ... with 61 more rows
## # i Use `print(n = ...)` to see more rows
…
